\relax 
\providecommand\hyper@newdestlabel[2]{}
\providecommand\HyperFirstAtBeginDocument{\AtBeginDocument}
\HyperFirstAtBeginDocument{\ifx\hyper@anchor\@undefined
\global\let\oldcontentsline\contentsline
\gdef\contentsline#1#2#3#4{\oldcontentsline{#1}{#2}{#3}}
\global\let\oldnewlabel\newlabel
\gdef\newlabel#1#2{\newlabelxx{#1}#2}
\gdef\newlabelxx#1#2#3#4#5#6{\oldnewlabel{#1}{{#2}{#3}}}
\AtEndDocument{\ifx\hyper@anchor\@undefined
\let\contentsline\oldcontentsline
\let\newlabel\oldnewlabel
\fi}
\fi}
\global\let\hyper@last\relax 
\gdef\HyperFirstAtBeginDocument#1{#1}
\providecommand\HyField@AuxAddToFields[1]{}
\providecommand\HyField@AuxAddToCoFields[2]{}
\@writefile{toc}{\contentsline {chapter}{\numberline {1}Documentation for the V\-C\-Pre\-Post config file}{1}{chapter.1}\protected@file@percent }
\@writefile{lof}{\addvspace {10\p@ }}
\@writefile{lot}{\addvspace {10\p@ }}
\newlabel{md_Config-Doc}{{1}{1}{Documentation for the V\-C\-Pre\-Post config file}{chapter.1}{}}
\@writefile{toc}{\contentsline {chapter}{\numberline {2}Todo List}{7}{chapter.2}\protected@file@percent }
\@writefile{lof}{\addvspace {10\p@ }}
\@writefile{lot}{\addvspace {10\p@ }}
\newlabel{todo}{{2}{7}{Todo List}{chapter.2}{}}
\newlabel{todo__todo000001}{{2}{7}{Todo List}{chapter.2}{}}
\@writefile{toc}{\contentsline {chapter}{\numberline {3}Class Index}{9}{chapter.3}\protected@file@percent }
\@writefile{lof}{\addvspace {10\p@ }}
\@writefile{lot}{\addvspace {10\p@ }}
\@writefile{toc}{\contentsline {section}{\numberline {3.1}Class List}{9}{section.3.1}\protected@file@percent }
\@writefile{toc}{\contentsline {chapter}{\numberline {4}File Index}{11}{chapter.4}\protected@file@percent }
\@writefile{lof}{\addvspace {10\p@ }}
\@writefile{lot}{\addvspace {10\p@ }}
\@writefile{toc}{\contentsline {section}{\numberline {4.1}File List}{11}{section.4.1}\protected@file@percent }
\@writefile{toc}{\contentsline {chapter}{\numberline {5}Class Documentation}{13}{chapter.5}\protected@file@percent }
\@writefile{lof}{\addvspace {10\p@ }}
\@writefile{lot}{\addvspace {10\p@ }}
\@writefile{toc}{\contentsline {section}{\numberline {5.1}config\-Pre\-Post.\-config\-Data\-Flow\-V\-C Class Reference}{13}{section.5.1}\protected@file@percent }
\newlabel{classconfig_pre_post_1_1config_data_flow_v_c}{{5.1}{13}{config\-Pre\-Post.\-config\-Data\-Flow\-V\-C Class Reference}{section.5.1}{}}
\newlabel{classconfig_pre_post_1_1config_data_flow_v_c_acb01fae532566617454c2ab32971fae9}{{5.1}{14}{Public Attributes}{section*.15}{}}
\newlabel{classconfig_pre_post_1_1config_data_flow_v_c_a3fe29cfb6563bbab64f256342abd817c}{{5.1}{14}{Public Attributes}{section*.15}{}}
\newlabel{classconfig_pre_post_1_1config_data_flow_v_c_a11bab19ab7a42f4696a10a4939b8964d}{{5.1}{14}{Public Attributes}{section*.15}{}}
\newlabel{classconfig_pre_post_1_1config_data_flow_v_c_a3baf7207f2bb081d1f94358b686185b4}{{5.1}{14}{Public Attributes}{section*.15}{}}
\newlabel{classconfig_pre_post_1_1config_data_flow_v_c_ab3520efaa4205facffbba01912406cbe}{{5.1}{14}{Public Attributes}{section*.15}{}}
\newlabel{classconfig_pre_post_1_1config_data_flow_v_c_aca8bf1d9945368ab7fb6e4222539705b}{{5.1}{14}{Public Attributes}{section*.15}{}}
\newlabel{classconfig_pre_post_1_1config_data_flow_v_c_abc7b8ca63534723ba53a545f88cc2388}{{5.1}{14}{Public Attributes}{section*.15}{}}
\newlabel{classconfig_pre_post_1_1config_data_flow_v_c_a24b14ffc8f0cd5cacfc4123000ff87d9}{{5.1}{14}{Public Attributes}{section*.15}{}}
\newlabel{classconfig_pre_post_1_1config_data_flow_v_c_ae943e7f3593312f89d4ea08a1d97e356}{{5.1}{14}{Public Attributes}{section*.15}{}}
\newlabel{classconfig_pre_post_1_1config_data_flow_v_c_a8f74f99275b1d9260fbc24c97375582a}{{5.1}{14}{Public Attributes}{section*.15}{}}
\newlabel{classconfig_pre_post_1_1config_data_flow_v_c_a0498c8d835f3083add475f3e6fdf6304}{{5.1}{14}{Public Attributes}{section*.15}{}}
\gdef \LT@i {\LT@entry 
    {1}{55.42702pt}\LT@entry 
    {1}{77.78368pt}\LT@entry 
    {1}{321.34094pt}}
\newlabel{classconfig_pre_post_1_1config_data_flow_v_c_a40a34355435f83ea01dbb2190677e58d}{{5.1}{15}{Public Attributes}{section*.15}{}}
\newlabel{classconfig_pre_post_1_1config_data_flow_v_c_aafd43e60b1614f52995bf9d3d25ee3e9}{{5.1}{15}{Public Attributes}{section*.15}{}}
\newlabel{classconfig_pre_post_1_1config_data_flow_v_c_a75ea79609dd5a458a53ef7bd0aee1a7a}{{5.1}{15}{Public Attributes}{section*.15}{}}
\newlabel{classconfig_pre_post_1_1config_data_flow_v_c_a0f5bc47a5027e782c79263bc11b9aacb}{{5.1}{15}{Public Attributes}{section*.15}{}}
\newlabel{classconfig_pre_post_1_1config_data_flow_v_c_a6fa788111ee29064ddc34c26fa84ac3a}{{5.1}{15}{Public Attributes}{section*.15}{}}
\newlabel{classconfig_pre_post_1_1config_data_flow_v_c_ab518819ff0b435e863e7bf6b4f9a7713}{{5.1}{15}{Public Attributes}{section*.15}{}}
\newlabel{classconfig_pre_post_1_1config_data_flow_v_c_a9e4b17b50b583edc9d50c1b624dd2257}{{5.1}{15}{Public Attributes}{section*.15}{}}
\newlabel{classconfig_pre_post_1_1config_data_flow_v_c_abe552e072ac39bbd123fcd117fecf388}{{5.1}{15}{Public Attributes}{section*.15}{}}
\newlabel{classconfig_pre_post_1_1config_data_flow_v_c_aa923ca31376c36865759d87a5f6873c7}{{5.1}{15}{Public Attributes}{section*.15}{}}
\newlabel{classconfig_pre_post_1_1config_data_flow_v_c_a4b5eb019b115b472263a62c377d3d9ab}{{5.1}{15}{Public Attributes}{section*.15}{}}
\newlabel{classconfig_pre_post_1_1config_data_flow_v_c_a9b87964eb1ddc923cdba957bb502a24e}{{5.1}{15}{Public Attributes}{section*.15}{}}
\newlabel{classconfig_pre_post_1_1config_data_flow_v_c_a372efd5ae2c1ae6d257f5507e72f029a}{{5.1}{15}{Public Attributes}{section*.15}{}}
\newlabel{classconfig_pre_post_1_1config_data_flow_v_c_afdfcfe779e1bbc7c7e0aa3d5658fbd06}{{5.1}{15}{Public Attributes}{section*.15}{}}
\newlabel{classconfig_pre_post_1_1config_data_flow_v_c_ae6505b7d7c3525882434cc78dcc2a49c}{{5.1}{15}{Public Attributes}{section*.15}{}}
\newlabel{classconfig_pre_post_1_1config_data_flow_v_c_a6386cb4b9ee425f094e02109c9cdf029}{{5.1}{15}{Public Attributes}{section*.15}{}}
\newlabel{classconfig_pre_post_1_1config_data_flow_v_c_a24799fcf88a10d0df29a9e5c8413a59e}{{5.1}{15}{Public Attributes}{section*.15}{}}
\newlabel{classconfig_pre_post_1_1config_data_flow_v_c_ae1b16dce7e8901979097b5c342d88e5d}{{5.1}{15}{Public Attributes}{section*.15}{}}
\newlabel{classconfig_pre_post_1_1config_data_flow_v_c_a4e6287af0bc8af0a300ef9dc768e3ea9}{{5.1}{15}{Public Attributes}{section*.15}{}}
\newlabel{classconfig_pre_post_1_1config_data_flow_v_c_ac06397f1c6fb13ec953f092b3477c2b7}{{5.1}{15}{Public Attributes}{section*.15}{}}
\newlabel{classconfig_pre_post_1_1config_data_flow_v_c_a19dcec5237320eb170746dded6e2a539}{{5.1}{15}{Public Attributes}{section*.15}{}}
\@writefile{toc}{\contentsline {subsection}{\numberline {5.1.1}Detailed Description}{15}{subsection.5.1.1}\protected@file@percent }
\@writefile{toc}{\contentsline {subsection}{\numberline {5.1.2}Constructor \& Destructor Documentation}{15}{subsection.5.1.2}\protected@file@percent }
\@writefile{toc}{\contentsline {subsubsection}{\numberline {5.1.2.1}\-\_\-\-\_\-init\-\_\-\-\_\-}{15}{subsubsection.5.1.2.1}\protected@file@percent }
\newlabel{classconfig_pre_post_1_1config_data_flow_v_c_abafce2417405b1480588136370a9e32f}{{5.1.2.1}{15}{\-\_\-\-\_\-init\-\_\-\-\_\-}{subsubsection.5.1.2.1}{}}
\@writefile{toc}{\contentsline {subsection}{\numberline {5.1.3}Member Function Documentation}{15}{subsection.5.1.3}\protected@file@percent }
\@writefile{toc}{\contentsline {subsubsection}{\numberline {5.1.3.1}compute\-Finite\-Size}{15}{subsubsection.5.1.3.1}\protected@file@percent }
\newlabel{classconfig_pre_post_1_1config_data_flow_v_c_a1a99c9b59279731423ce7014acaf3f5f}{{5.1.3.1}{15}{compute\-Finite\-Size}{subsubsection.5.1.3.1}{}}
\@writefile{toc}{\contentsline {subsubsection}{\numberline {5.1.3.2}compute\-F\-T\-L\-E}{15}{subsubsection.5.1.3.2}\protected@file@percent }
\newlabel{classconfig_pre_post_1_1config_data_flow_v_c_ac385792ae983bc14339114f35e38c5ff}{{5.1.3.2}{15}{compute\-F\-T\-L\-E}{subsubsection.5.1.3.2}{}}
\@writefile{toc}{\contentsline {subsubsection}{\numberline {5.1.3.3}compute\-Tracers}{16}{subsubsection.5.1.3.3}\protected@file@percent }
\newlabel{classconfig_pre_post_1_1config_data_flow_v_c_ad3f0713c3d8610b0a7db2e5c28bc6a7e}{{5.1.3.3}{16}{compute\-Tracers}{subsubsection.5.1.3.3}{}}
\@writefile{toc}{\contentsline {subsubsection}{\numberline {5.1.3.4}get\-Fluid\-Density}{16}{subsubsection.5.1.3.4}\protected@file@percent }
\newlabel{classconfig_pre_post_1_1config_data_flow_v_c_abf3bb2a3938f8b7291c4591e6178dd3f}{{5.1.3.4}{16}{get\-Fluid\-Density}{subsubsection.5.1.3.4}{}}
\@writefile{toc}{\contentsline {subsubsection}{\numberline {5.1.3.5}get\-Fluid\-Viscosity}{16}{subsubsection.5.1.3.5}\protected@file@percent }
\newlabel{classconfig_pre_post_1_1config_data_flow_v_c_aefd028dbfffbdfbe1f3428ca4532eb16}{{5.1.3.5}{16}{get\-Fluid\-Viscosity}{subsubsection.5.1.3.5}{}}
\@writefile{toc}{\contentsline {subsubsection}{\numberline {5.1.3.6}get\-F\-T\-L\-E\-Generate\-Mesh}{16}{subsubsection.5.1.3.6}\protected@file@percent }
\newlabel{classconfig_pre_post_1_1config_data_flow_v_c_ad1aaad06819aa64b2320c62bb64feb2e}{{5.1.3.6}{16}{get\-F\-T\-L\-E\-Generate\-Mesh}{subsubsection.5.1.3.6}{}}
\@writefile{toc}{\contentsline {subsubsection}{\numberline {5.1.3.7}get\-F\-T\-L\-E\-Init\-File}{16}{subsubsection.5.1.3.7}\protected@file@percent }
\newlabel{classconfig_pre_post_1_1config_data_flow_v_c_ab86c88ae00f2f4402541155b6a682cd9}{{5.1.3.7}{16}{get\-F\-T\-L\-E\-Init\-File}{subsubsection.5.1.3.7}{}}
\@writefile{toc}{\contentsline {subsubsection}{\numberline {5.1.3.8}get\-F\-T\-L\-E\-Int\-Length}{16}{subsubsection.5.1.3.8}\protected@file@percent }
\newlabel{classconfig_pre_post_1_1config_data_flow_v_c_a081de0ea7b1699376068a48703910112}{{5.1.3.8}{16}{get\-F\-T\-L\-E\-Int\-Length}{subsubsection.5.1.3.8}{}}
\@writefile{toc}{\contentsline {subsubsection}{\numberline {5.1.3.9}get\-F\-T\-L\-E\-Out\-Prefix}{16}{subsubsection.5.1.3.9}\protected@file@percent }
\newlabel{classconfig_pre_post_1_1config_data_flow_v_c_a5c31e23c8bfe85b15b6169baaca13901}{{5.1.3.9}{16}{get\-F\-T\-L\-E\-Out\-Prefix}{subsubsection.5.1.3.9}{}}
\@writefile{toc}{\contentsline {subsubsection}{\numberline {5.1.3.10}get\-Gravity\-X}{16}{subsubsection.5.1.3.10}\protected@file@percent }
\newlabel{classconfig_pre_post_1_1config_data_flow_v_c_a13db3ca8a96ddf2e54b9df17bebaec6c}{{5.1.3.10}{16}{get\-Gravity\-X}{subsubsection.5.1.3.10}{}}
\@writefile{toc}{\contentsline {subsubsection}{\numberline {5.1.3.11}get\-Gravity\-Y}{16}{subsubsection.5.1.3.11}\protected@file@percent }
\newlabel{classconfig_pre_post_1_1config_data_flow_v_c_af958c09ef8b67654274e51a8af5c592f}{{5.1.3.11}{16}{get\-Gravity\-Y}{subsubsection.5.1.3.11}{}}
\@writefile{toc}{\contentsline {subsubsection}{\numberline {5.1.3.12}get\-Gravity\-Z}{17}{subsubsection.5.1.3.12}\protected@file@percent }
\newlabel{classconfig_pre_post_1_1config_data_flow_v_c_a03d46abb58de753b727bdccc67fc85ec}{{5.1.3.12}{17}{get\-Gravity\-Z}{subsubsection.5.1.3.12}{}}
\@writefile{toc}{\contentsline {subsubsection}{\numberline {5.1.3.13}get\-Input\-File\-Name}{17}{subsubsection.5.1.3.13}\protected@file@percent }
\newlabel{classconfig_pre_post_1_1config_data_flow_v_c_a99d2955c3caccb837ea36a80afaa1989}{{5.1.3.13}{17}{get\-Input\-File\-Name}{subsubsection.5.1.3.13}{}}
\@writefile{toc}{\contentsline {subsubsection}{\numberline {5.1.3.14}get\-Int\-Accuracy}{17}{subsubsection.5.1.3.14}\protected@file@percent }
\newlabel{classconfig_pre_post_1_1config_data_flow_v_c_a77d383cbe28fcbfff51bcd2b5e630469}{{5.1.3.14}{17}{get\-Int\-Accuracy}{subsubsection.5.1.3.14}{}}
\@writefile{toc}{\contentsline {subsubsection}{\numberline {5.1.3.15}get\-Int\-Direction}{17}{subsubsection.5.1.3.15}\protected@file@percent }
\newlabel{classconfig_pre_post_1_1config_data_flow_v_c_a7e518f9dd925be73024a64575c508c63}{{5.1.3.15}{17}{get\-Int\-Direction}{subsubsection.5.1.3.15}{}}
\@writefile{toc}{\contentsline {subsubsection}{\numberline {5.1.3.16}get\-Int\-Extrapolate}{17}{subsubsection.5.1.3.16}\protected@file@percent }
\newlabel{classconfig_pre_post_1_1config_data_flow_v_c_a41e8b328757cee3d8a93ce4b50022977}{{5.1.3.16}{17}{get\-Int\-Extrapolate}{subsubsection.5.1.3.16}{}}
\@writefile{toc}{\contentsline {subsubsection}{\numberline {5.1.3.17}get\-Int\-Max\-Size}{17}{subsubsection.5.1.3.17}\protected@file@percent }
\newlabel{classconfig_pre_post_1_1config_data_flow_v_c_acc1488064d01daecbd4abbd9c209ae89}{{5.1.3.17}{17}{get\-Int\-Max\-Size}{subsubsection.5.1.3.17}{}}
\@writefile{toc}{\contentsline {subsubsection}{\numberline {5.1.3.18}get\-Int\-Min\-Size}{17}{subsubsection.5.1.3.18}\protected@file@percent }
\newlabel{classconfig_pre_post_1_1config_data_flow_v_c_a4341eac2fc84368049fafe37a5c2254c}{{5.1.3.18}{17}{get\-Int\-Min\-Size}{subsubsection.5.1.3.18}{}}
\@writefile{toc}{\contentsline {subsubsection}{\numberline {5.1.3.19}get\-Int\-Normal\-Flow}{17}{subsubsection.5.1.3.19}\protected@file@percent }
\newlabel{classconfig_pre_post_1_1config_data_flow_v_c_adf411b11098fb53a9f94f28b8dfa2749}{{5.1.3.19}{17}{get\-Int\-Normal\-Flow}{subsubsection.5.1.3.19}{}}
\@writefile{toc}{\contentsline {subsubsection}{\numberline {5.1.3.20}get\-Int\-Normal\-Scaling}{17}{subsubsection.5.1.3.20}\protected@file@percent }
\newlabel{classconfig_pre_post_1_1config_data_flow_v_c_a33c8ad4eaad63fc961b20b7cef27acdb}{{5.1.3.20}{17}{get\-Int\-Normal\-Scaling}{subsubsection.5.1.3.20}{}}
\@writefile{toc}{\contentsline {subsubsection}{\numberline {5.1.3.21}get\-Int\-Time\-Step}{18}{subsubsection.5.1.3.21}\protected@file@percent }
\newlabel{classconfig_pre_post_1_1config_data_flow_v_c_aabdc852de2bc8c681544a7d923f6da59}{{5.1.3.21}{18}{get\-Int\-Time\-Step}{subsubsection.5.1.3.21}{}}
\@writefile{toc}{\contentsline {subsubsection}{\numberline {5.1.3.22}get\-Int\-Type}{18}{subsubsection.5.1.3.22}\protected@file@percent }
\newlabel{classconfig_pre_post_1_1config_data_flow_v_c_ad2759a8068a319d0ce36d7820cb8dee4}{{5.1.3.22}{18}{get\-Int\-Type}{subsubsection.5.1.3.22}{}}
\@writefile{toc}{\contentsline {subsubsection}{\numberline {5.1.3.23}get\-Max\-Tracer\-Int\-Time}{18}{subsubsection.5.1.3.23}\protected@file@percent }
\newlabel{classconfig_pre_post_1_1config_data_flow_v_c_a49e462651cc3a6969c536356849b1888}{{5.1.3.23}{18}{get\-Max\-Tracer\-Int\-Time}{subsubsection.5.1.3.23}{}}
\@writefile{toc}{\contentsline {subsubsection}{\numberline {5.1.3.24}get\-Num\-Tracer\-Launch}{18}{subsubsection.5.1.3.24}\protected@file@percent }
\newlabel{classconfig_pre_post_1_1config_data_flow_v_c_a08fcbc053ba437f5e50c3219661c9891}{{5.1.3.24}{18}{get\-Num\-Tracer\-Launch}{subsubsection.5.1.3.24}{}}
\@writefile{toc}{\contentsline {subsubsection}{\numberline {5.1.3.25}get\-Output\-T\-Delta}{18}{subsubsection.5.1.3.25}\protected@file@percent }
\newlabel{classconfig_pre_post_1_1config_data_flow_v_c_af16b845b9867835c646a50d6325a6606}{{5.1.3.25}{18}{get\-Output\-T\-Delta}{subsubsection.5.1.3.25}{}}
\@writefile{toc}{\contentsline {subsubsection}{\numberline {5.1.3.26}get\-Output\-T\-Res}{18}{subsubsection.5.1.3.26}\protected@file@percent }
\newlabel{classconfig_pre_post_1_1config_data_flow_v_c_a30c6a77bcefdb9e03b09f7d64b33abb3}{{5.1.3.26}{18}{get\-Output\-T\-Res}{subsubsection.5.1.3.26}{}}
\@writefile{toc}{\contentsline {subsubsection}{\numberline {5.1.3.27}get\-Output\-T\-Start}{18}{subsubsection.5.1.3.27}\protected@file@percent }
\newlabel{classconfig_pre_post_1_1config_data_flow_v_c_ac38882bfd6636c407325fac951c39387}{{5.1.3.27}{18}{get\-Output\-T\-Start}{subsubsection.5.1.3.27}{}}
\@writefile{toc}{\contentsline {subsubsection}{\numberline {5.1.3.28}get\-Tracer\-Launch\-Spacing}{18}{subsubsection.5.1.3.28}\protected@file@percent }
\newlabel{classconfig_pre_post_1_1config_data_flow_v_c_a3258e6b812ff29b190a5a3bf5917564e}{{5.1.3.28}{18}{get\-Tracer\-Launch\-Spacing}{subsubsection.5.1.3.28}{}}
\@writefile{toc}{\contentsline {subsubsection}{\numberline {5.1.3.29}get\-Tracer\-Release\-Duration}{18}{subsubsection.5.1.3.29}\protected@file@percent }
\newlabel{classconfig_pre_post_1_1config_data_flow_v_c_a047659e8c5d2b47d69f7fe2a29bc2b38}{{5.1.3.29}{18}{get\-Tracer\-Release\-Duration}{subsubsection.5.1.3.29}{}}
\@writefile{toc}{\contentsline {subsubsection}{\numberline {5.1.3.30}get\-Tracer\-Release\-Type}{19}{subsubsection.5.1.3.30}\protected@file@percent }
\newlabel{classconfig_pre_post_1_1config_data_flow_v_c_ac135c05f7f25bcfd2e9816ba71987170}{{5.1.3.30}{19}{get\-Tracer\-Release\-Type}{subsubsection.5.1.3.30}{}}
\@writefile{toc}{\contentsline {subsubsection}{\numberline {5.1.3.31}print\-Config\-Data}{19}{subsubsection.5.1.3.31}\protected@file@percent }
\newlabel{classconfig_pre_post_1_1config_data_flow_v_c_a6a77fd34f2059ecafde6428b6cc02b16}{{5.1.3.31}{19}{print\-Config\-Data}{subsubsection.5.1.3.31}{}}
\@writefile{toc}{\contentsline {subsubsection}{\numberline {5.1.3.32}set\-Config\-Data}{19}{subsubsection.5.1.3.32}\protected@file@percent }
\newlabel{classconfig_pre_post_1_1config_data_flow_v_c_a2f8096bc30eeb22e8e0b0fba9a72fab3}{{5.1.3.32}{19}{set\-Config\-Data}{subsubsection.5.1.3.32}{}}
\@writefile{toc}{\contentsline {section}{\numberline {5.2}config\-Pre\-Post.\-config\-Data\-Post\-Processor Class Reference}{19}{section.5.2}\protected@file@percent }
\newlabel{classconfig_pre_post_1_1config_data_post_processor}{{5.2}{19}{config\-Pre\-Post.\-config\-Data\-Post\-Processor Class Reference}{section.5.2}{}}
\newlabel{classconfig_pre_post_1_1config_data_post_processor_ac7c36f5fbee67c10f3c3b9b9175e5874}{{5.2}{19}{Public Attributes}{section*.17}{}}
\newlabel{classconfig_pre_post_1_1config_data_post_processor_a4893edc8d21f68fb0ad5ef2e05e8157b}{{5.2}{19}{Public Attributes}{section*.17}{}}
\newlabel{classconfig_pre_post_1_1config_data_post_processor_a89ecca7821afb03f08325261530f406c}{{5.2}{19}{Public Attributes}{section*.17}{}}
\newlabel{classconfig_pre_post_1_1config_data_post_processor_ae514e028596818506beb659148d8d88e}{{5.2}{19}{Public Attributes}{section*.17}{}}
\gdef \LT@ii {\LT@entry 
    {1}{55.42702pt}\LT@entry 
    {1}{77.78368pt}\LT@entry 
    {1}{321.34094pt}}
\newlabel{classconfig_pre_post_1_1config_data_post_processor_a507eaef05b787608ca9a1c883928c349}{{5.2}{20}{Public Attributes}{section*.17}{}}
\newlabel{classconfig_pre_post_1_1config_data_post_processor_a6ef8e6ae2dccfbc8111ed384ddee771f}{{5.2}{20}{Public Attributes}{section*.17}{}}
\newlabel{classconfig_pre_post_1_1config_data_post_processor_a1641295fba63139e012961a8ec1f1896}{{5.2}{20}{Public Attributes}{section*.17}{}}
\newlabel{classconfig_pre_post_1_1config_data_post_processor_ade98ba898fb2165a6233bb171d30ef7a}{{5.2}{20}{Public Attributes}{section*.17}{}}
\@writefile{toc}{\contentsline {subsection}{\numberline {5.2.1}Constructor \& Destructor Documentation}{20}{subsection.5.2.1}\protected@file@percent }
\@writefile{toc}{\contentsline {subsubsection}{\numberline {5.2.1.1}\-\_\-\-\_\-init\-\_\-\-\_\-}{20}{subsubsection.5.2.1.1}\protected@file@percent }
\newlabel{classconfig_pre_post_1_1config_data_post_processor_ad00215eed27c06332c4a5d4bbd7614fd}{{5.2.1.1}{20}{\-\_\-\-\_\-init\-\_\-\-\_\-}{subsubsection.5.2.1.1}{}}
\@writefile{toc}{\contentsline {subsection}{\numberline {5.2.2}Member Function Documentation}{20}{subsection.5.2.2}\protected@file@percent }
\@writefile{toc}{\contentsline {subsubsection}{\numberline {5.2.2.1}convert\-Particles}{20}{subsubsection.5.2.2.1}\protected@file@percent }
\newlabel{classconfig_pre_post_1_1config_data_post_processor_aa9e0120fca3961b7b273c22f9a53b4cb}{{5.2.2.1}{20}{convert\-Particles}{subsubsection.5.2.2.1}{}}
\@writefile{toc}{\contentsline {subsubsection}{\numberline {5.2.2.2}get\-Particle\-Data\-Directory}{20}{subsubsection.5.2.2.2}\protected@file@percent }
\newlabel{classconfig_pre_post_1_1config_data_post_processor_a65896414596294831ab39221f48537a0}{{5.2.2.2}{20}{get\-Particle\-Data\-Directory}{subsubsection.5.2.2.2}{}}
\@writefile{toc}{\contentsline {subsubsection}{\numberline {5.2.2.3}get\-Particle\-Data\-Type}{20}{subsubsection.5.2.2.3}\protected@file@percent }
\newlabel{classconfig_pre_post_1_1config_data_post_processor_a06e729627bb81c932d41813901fce44a}{{5.2.2.3}{20}{get\-Particle\-Data\-Type}{subsubsection.5.2.2.3}{}}
\@writefile{toc}{\contentsline {subsubsection}{\numberline {5.2.2.4}get\-Particle\-File\-Prefix}{20}{subsubsection.5.2.2.4}\protected@file@percent }
\newlabel{classconfig_pre_post_1_1config_data_post_processor_ac8ea1bf32a1d71e18384e50a094452db}{{5.2.2.4}{20}{get\-Particle\-File\-Prefix}{subsubsection.5.2.2.4}{}}
\@writefile{toc}{\contentsline {subsubsection}{\numberline {5.2.2.5}get\-Particle\-Index\-Interval}{20}{subsubsection.5.2.2.5}\protected@file@percent }
\newlabel{classconfig_pre_post_1_1config_data_post_processor_a1c1a2895bccbc20013a0d30bcf56a234}{{5.2.2.5}{20}{get\-Particle\-Index\-Interval}{subsubsection.5.2.2.5}{}}
\@writefile{toc}{\contentsline {subsubsection}{\numberline {5.2.2.6}get\-Particle\-Index\-Start}{20}{subsubsection.5.2.2.6}\protected@file@percent }
\newlabel{classconfig_pre_post_1_1config_data_post_processor_a0142887795f6ae52f4ebd486ad0e05ea}{{5.2.2.6}{20}{get\-Particle\-Index\-Start}{subsubsection.5.2.2.6}{}}
\@writefile{toc}{\contentsline {subsubsection}{\numberline {5.2.2.7}get\-Particle\-Index\-Stop}{21}{subsubsection.5.2.2.7}\protected@file@percent }
\newlabel{classconfig_pre_post_1_1config_data_post_processor_a89d8c4ed55270ce4ae48b20681fc57e4}{{5.2.2.7}{21}{get\-Particle\-Index\-Stop}{subsubsection.5.2.2.7}{}}
\@writefile{toc}{\contentsline {subsubsection}{\numberline {5.2.2.8}print\-Config\-Data}{21}{subsubsection.5.2.2.8}\protected@file@percent }
\newlabel{classconfig_pre_post_1_1config_data_post_processor_a57a57e9100bd0fd27b07c62662b28f42}{{5.2.2.8}{21}{print\-Config\-Data}{subsubsection.5.2.2.8}{}}
\@writefile{toc}{\contentsline {subsubsection}{\numberline {5.2.2.9}set\-Config\-Data}{21}{subsubsection.5.2.2.9}\protected@file@percent }
\newlabel{classconfig_pre_post_1_1config_data_post_processor_a9bb6dc6e26ccf6b7948b274e87977a57}{{5.2.2.9}{21}{set\-Config\-Data}{subsubsection.5.2.2.9}{}}
\@writefile{toc}{\contentsline {section}{\numberline {5.3}config\-Pre\-Post.\-config\-Data\-Pre\-Processor Class Reference}{21}{section.5.3}\protected@file@percent }
\newlabel{classconfig_pre_post_1_1config_data_pre_processor}{{5.3}{21}{config\-Pre\-Post.\-config\-Data\-Pre\-Processor Class Reference}{section.5.3}{}}
\gdef \LT@iii {\LT@entry 
    {1}{55.42702pt}\LT@entry 
    {1}{77.78368pt}\LT@entry 
    {1}{321.34094pt}}
\newlabel{classconfig_pre_post_1_1config_data_pre_processor_a53894a2cf9cf581d461dc0ba80e42c8d}{{5.3}{23}{Public Attributes}{section*.19}{}}
\newlabel{classconfig_pre_post_1_1config_data_pre_processor_a7e028bc8c78b6180dd4b3626377d0e0d}{{5.3}{23}{Public Attributes}{section*.19}{}}
\newlabel{classconfig_pre_post_1_1config_data_pre_processor_a82ed185f22c7e45d7bdff9afb75852e7}{{5.3}{23}{Public Attributes}{section*.19}{}}
\newlabel{classconfig_pre_post_1_1config_data_pre_processor_aadd08cdd0376ef62505b2e5046a3097c}{{5.3}{23}{Public Attributes}{section*.19}{}}
\newlabel{classconfig_pre_post_1_1config_data_pre_processor_a3303630106a23c7f66cce1e7164c295e}{{5.3}{23}{Public Attributes}{section*.19}{}}
\newlabel{classconfig_pre_post_1_1config_data_pre_processor_ae1b371d6c615597173a2ed198042c83f}{{5.3}{23}{Public Attributes}{section*.19}{}}
\newlabel{classconfig_pre_post_1_1config_data_pre_processor_adde18051444724ee1616b8993137d7b9}{{5.3}{23}{Public Attributes}{section*.19}{}}
\newlabel{classconfig_pre_post_1_1config_data_pre_processor_a1f23018ed948e87f61807e1b8352a1c8}{{5.3}{23}{Public Attributes}{section*.19}{}}
\newlabel{classconfig_pre_post_1_1config_data_pre_processor_a07b19384a1ed5f14013546ac9b004ef7}{{5.3}{23}{Public Attributes}{section*.19}{}}
\newlabel{classconfig_pre_post_1_1config_data_pre_processor_a67e83cafe74231e5d39bfb0663058827}{{5.3}{23}{Public Attributes}{section*.19}{}}
\newlabel{classconfig_pre_post_1_1config_data_pre_processor_ae4e276092586621ee1b2fbf15008997a}{{5.3}{23}{Public Attributes}{section*.19}{}}
\newlabel{classconfig_pre_post_1_1config_data_pre_processor_a9e6003098befad89e36d792b9690fe15}{{5.3}{23}{Public Attributes}{section*.19}{}}
\newlabel{classconfig_pre_post_1_1config_data_pre_processor_a8e499beed1c10b0297523755b455cd66}{{5.3}{23}{Public Attributes}{section*.19}{}}
\newlabel{classconfig_pre_post_1_1config_data_pre_processor_ae7a83e19fbf693af8d55832a88d0a64b}{{5.3}{23}{Public Attributes}{section*.19}{}}
\newlabel{classconfig_pre_post_1_1config_data_pre_processor_acafd79db77520aa4c164dfb1902320c4}{{5.3}{23}{Public Attributes}{section*.19}{}}
\newlabel{classconfig_pre_post_1_1config_data_pre_processor_ad92a2f5d9763ff82e46b15c4cf9ac7f6}{{5.3}{23}{Public Attributes}{section*.19}{}}
\newlabel{classconfig_pre_post_1_1config_data_pre_processor_a93d3189cbbc7eaa1f4aa5ce28fb1b237}{{5.3}{23}{Public Attributes}{section*.19}{}}
\newlabel{classconfig_pre_post_1_1config_data_pre_processor_afc77dc1ec39100a82521f26aa71011b6}{{5.3}{23}{Public Attributes}{section*.19}{}}
\newlabel{classconfig_pre_post_1_1config_data_pre_processor_ae3656eac760847e6452762677cd7409e}{{5.3}{23}{Public Attributes}{section*.19}{}}
\newlabel{classconfig_pre_post_1_1config_data_pre_processor_a978c5014eed025753c5055d97cfd4a74}{{5.3}{23}{Public Attributes}{section*.19}{}}
\newlabel{classconfig_pre_post_1_1config_data_pre_processor_ab8cd6bdd2759162679e096f3a489804d}{{5.3}{23}{Public Attributes}{section*.19}{}}
\newlabel{classconfig_pre_post_1_1config_data_pre_processor_a467f340fa5eb25a89bd4c04a4f34ee23}{{5.3}{23}{Public Attributes}{section*.19}{}}
\newlabel{classconfig_pre_post_1_1config_data_pre_processor_a1d609e91acec980f9e8524414d3eb539}{{5.3}{23}{Public Attributes}{section*.19}{}}
\newlabel{classconfig_pre_post_1_1config_data_pre_processor_a61a88afe8fddb601a45f30aeddfdd0aa}{{5.3}{23}{Public Attributes}{section*.19}{}}
\newlabel{classconfig_pre_post_1_1config_data_pre_processor_a957da53882eda35adc74f8dff7d850da}{{5.3}{23}{Public Attributes}{section*.19}{}}
\newlabel{classconfig_pre_post_1_1config_data_pre_processor_a901f193961978d9269bf7961f9fd3b65}{{5.3}{23}{Public Attributes}{section*.19}{}}
\newlabel{classconfig_pre_post_1_1config_data_pre_processor_a391bbf078705095d602b26cfd165a7af}{{5.3}{23}{Public Attributes}{section*.19}{}}
\newlabel{classconfig_pre_post_1_1config_data_pre_processor_aa75d48d2d2d27b49be65d7669e91ae95}{{5.3}{23}{Public Attributes}{section*.19}{}}
\newlabel{classconfig_pre_post_1_1config_data_pre_processor_a06392df6bf4d5c1c2398792eaaf9bf36}{{5.3}{23}{Public Attributes}{section*.19}{}}
\newlabel{classconfig_pre_post_1_1config_data_pre_processor_a466adfcba0ea8d9211712a89e2853d5e}{{5.3}{23}{Public Attributes}{section*.19}{}}
\newlabel{classconfig_pre_post_1_1config_data_pre_processor_aa66c260808102e9cf8ada3401dad943f}{{5.3}{23}{Public Attributes}{section*.19}{}}
\newlabel{classconfig_pre_post_1_1config_data_pre_processor_a3aebf16e411676002f64dd82aabd86b0}{{5.3}{23}{Public Attributes}{section*.19}{}}
\newlabel{classconfig_pre_post_1_1config_data_pre_processor_ae61e8d3c553c89b8f1eae620be039761}{{5.3}{23}{Public Attributes}{section*.19}{}}
\newlabel{classconfig_pre_post_1_1config_data_pre_processor_ab15617cb8985c20e4b19731495c009d4}{{5.3}{23}{Public Attributes}{section*.19}{}}
\newlabel{classconfig_pre_post_1_1config_data_pre_processor_a3bb23d9541a5914959f8b725ee6d350d}{{5.3}{23}{Public Attributes}{section*.19}{}}
\newlabel{classconfig_pre_post_1_1config_data_pre_processor_a24e2df28b2574d72df06c0995886b9f1}{{5.3}{23}{Public Attributes}{section*.19}{}}
\@writefile{toc}{\contentsline {subsection}{\numberline {5.3.1}Constructor \& Destructor Documentation}{23}{subsection.5.3.1}\protected@file@percent }
\@writefile{toc}{\contentsline {subsubsection}{\numberline {5.3.1.1}\-\_\-\-\_\-init\-\_\-\-\_\-}{23}{subsubsection.5.3.1.1}\protected@file@percent }
\newlabel{classconfig_pre_post_1_1config_data_pre_processor_a0b087454221402369cf5fd92ffde1600}{{5.3.1.1}{23}{\-\_\-\-\_\-init\-\_\-\-\_\-}{subsubsection.5.3.1.1}{}}
\@writefile{toc}{\contentsline {subsection}{\numberline {5.3.2}Member Function Documentation}{23}{subsection.5.3.2}\protected@file@percent }
\@writefile{toc}{\contentsline {subsubsection}{\numberline {5.3.2.1}convert\-Boundary\-Flags}{24}{subsubsection.5.3.2.1}\protected@file@percent }
\newlabel{classconfig_pre_post_1_1config_data_pre_processor_a553bc3470420d6f21d87cc1866d7faa9}{{5.3.2.1}{24}{convert\-Boundary\-Flags}{subsubsection.5.3.2.1}{}}
\@writefile{toc}{\contentsline {subsubsection}{\numberline {5.3.2.2}convert\-Data\-Files}{24}{subsubsection.5.3.2.2}\protected@file@percent }
\newlabel{classconfig_pre_post_1_1config_data_pre_processor_aaaf1bb40e27a61e056e0ebe0dc5239ce}{{5.3.2.2}{24}{convert\-Data\-Files}{subsubsection.5.3.2.2}{}}
\@writefile{toc}{\contentsline {subsubsection}{\numberline {5.3.2.3}convert\-Mesh\-Files}{24}{subsubsection.5.3.2.3}\protected@file@percent }
\newlabel{classconfig_pre_post_1_1config_data_pre_processor_ac707e10803df955db542b45e678beb84}{{5.3.2.3}{24}{convert\-Mesh\-Files}{subsubsection.5.3.2.3}{}}
\@writefile{toc}{\contentsline {subsubsection}{\numberline {5.3.2.4}convert\-Normals}{24}{subsubsection.5.3.2.4}\protected@file@percent }
\newlabel{classconfig_pre_post_1_1config_data_pre_processor_a95dcba82502117fa876f797bca3bf49a}{{5.3.2.4}{24}{convert\-Normals}{subsubsection.5.3.2.4}{}}
\@writefile{toc}{\contentsline {subsubsection}{\numberline {5.3.2.5}create\-Seed\-Cartesian}{24}{subsubsection.5.3.2.5}\protected@file@percent }
\newlabel{classconfig_pre_post_1_1config_data_pre_processor_a164ac6c1c9d2b9a10649fa81d64a577c}{{5.3.2.5}{24}{create\-Seed\-Cartesian}{subsubsection.5.3.2.5}{}}
\@writefile{toc}{\contentsline {subsubsection}{\numberline {5.3.2.6}create\-Seed\-Particles}{24}{subsubsection.5.3.2.6}\protected@file@percent }
\newlabel{classconfig_pre_post_1_1config_data_pre_processor_abc791a0f5c8fa88f1600ab28d3f1c94b}{{5.3.2.6}{24}{create\-Seed\-Particles}{subsubsection.5.3.2.6}{}}
\@writefile{toc}{\contentsline {subsubsection}{\numberline {5.3.2.7}flip\-Normals\-At\-Conversion}{24}{subsubsection.5.3.2.7}\protected@file@percent }
\newlabel{classconfig_pre_post_1_1config_data_pre_processor_aaef722126de43940c891ca91324ec9c4}{{5.3.2.7}{24}{flip\-Normals\-At\-Conversion}{subsubsection.5.3.2.7}{}}
\@writefile{toc}{\contentsline {subsubsection}{\numberline {5.3.2.8}flip\-Normals\-For\-Particles}{24}{subsubsection.5.3.2.8}\protected@file@percent }
\newlabel{classconfig_pre_post_1_1config_data_pre_processor_a0d6aa011e26df1aab9c9adf8b0ed8932}{{5.3.2.8}{24}{flip\-Normals\-For\-Particles}{subsubsection.5.3.2.8}{}}
\@writefile{toc}{\contentsline {subsubsection}{\numberline {5.3.2.9}get\-Bin\-File\-Directory}{24}{subsubsection.5.3.2.9}\protected@file@percent }
\newlabel{classconfig_pre_post_1_1config_data_pre_processor_a23f0828e43afebd9d71be7ac52c6d0b8}{{5.3.2.9}{24}{get\-Bin\-File\-Directory}{subsubsection.5.3.2.9}{}}
\@writefile{toc}{\contentsline {subsubsection}{\numberline {5.3.2.10}get\-Bin\-File\-Prefix}{25}{subsubsection.5.3.2.10}\protected@file@percent }
\newlabel{classconfig_pre_post_1_1config_data_pre_processor_a7ec127784583da883581fc7cd6aef094}{{5.3.2.10}{25}{get\-Bin\-File\-Prefix}{subsubsection.5.3.2.10}{}}
\@writefile{toc}{\contentsline {subsubsection}{\numberline {5.3.2.11}get\-Data\-Dir}{25}{subsubsection.5.3.2.11}\protected@file@percent }
\newlabel{classconfig_pre_post_1_1config_data_pre_processor_a3eb4410114d30d860e29908cd3e49cf6}{{5.3.2.11}{25}{get\-Data\-Dir}{subsubsection.5.3.2.11}{}}
\@writefile{toc}{\contentsline {subsubsection}{\numberline {5.3.2.12}get\-Data\-Field\-Name}{25}{subsubsection.5.3.2.12}\protected@file@percent }
\newlabel{classconfig_pre_post_1_1config_data_pre_processor_a54674491fdd3cd6c605cc946ba769ce4}{{5.3.2.12}{25}{get\-Data\-Field\-Name}{subsubsection.5.3.2.12}{}}
\@writefile{toc}{\contentsline {subsubsection}{\numberline {5.3.2.13}get\-Data\-File\-Extension}{25}{subsubsection.5.3.2.13}\protected@file@percent }
\newlabel{classconfig_pre_post_1_1config_data_pre_processor_ac45f1639286e61730f3705298e5e672d}{{5.3.2.13}{25}{get\-Data\-File\-Extension}{subsubsection.5.3.2.13}{}}
\@writefile{toc}{\contentsline {subsubsection}{\numberline {5.3.2.14}get\-Data\-File\-Index\-End}{25}{subsubsection.5.3.2.14}\protected@file@percent }
\newlabel{classconfig_pre_post_1_1config_data_pre_processor_a223fa0ce1055b70366087632f4fdce7d}{{5.3.2.14}{25}{get\-Data\-File\-Index\-End}{subsubsection.5.3.2.14}{}}
\@writefile{toc}{\contentsline {subsubsection}{\numberline {5.3.2.15}get\-Data\-File\-Index\-Interval}{25}{subsubsection.5.3.2.15}\protected@file@percent }
\newlabel{classconfig_pre_post_1_1config_data_pre_processor_af0481df20ff7805d44a66545b013b13c}{{5.3.2.15}{25}{get\-Data\-File\-Index\-Interval}{subsubsection.5.3.2.15}{}}
\@writefile{toc}{\contentsline {subsubsection}{\numberline {5.3.2.16}get\-Data\-File\-Index\-Start}{25}{subsubsection.5.3.2.16}\protected@file@percent }
\newlabel{classconfig_pre_post_1_1config_data_pre_processor_af92e31e2dfcece773a8eb824205714ba}{{5.3.2.16}{25}{get\-Data\-File\-Index\-Start}{subsubsection.5.3.2.16}{}}
\@writefile{toc}{\contentsline {subsubsection}{\numberline {5.3.2.17}get\-Data\-File\-Name}{25}{subsubsection.5.3.2.17}\protected@file@percent }
\newlabel{classconfig_pre_post_1_1config_data_pre_processor_a4d3f4bfaedeb14318e31f2f26c9b6658}{{5.3.2.17}{25}{get\-Data\-File\-Name}{subsubsection.5.3.2.17}{}}
\@writefile{toc}{\contentsline {subsubsection}{\numberline {5.3.2.18}get\-Data\-File\-Prefix}{25}{subsubsection.5.3.2.18}\protected@file@percent }
\newlabel{classconfig_pre_post_1_1config_data_pre_processor_a18a864810a9cac1fefff524b768dc0b7}{{5.3.2.18}{25}{get\-Data\-File\-Prefix}{subsubsection.5.3.2.18}{}}
\@writefile{toc}{\contentsline {subsubsection}{\numberline {5.3.2.19}get\-Data\-File\-Time\-Interval}{26}{subsubsection.5.3.2.19}\protected@file@percent }
\newlabel{classconfig_pre_post_1_1config_data_pre_processor_a04484a3154fb55b27fd2c2341f446ef6}{{5.3.2.19}{26}{get\-Data\-File\-Time\-Interval}{subsubsection.5.3.2.19}{}}
\@writefile{toc}{\contentsline {subsubsection}{\numberline {5.3.2.20}get\-Data\-File\-Type}{26}{subsubsection.5.3.2.20}\protected@file@percent }
\newlabel{classconfig_pre_post_1_1config_data_pre_processor_af56f2472f30bf41be95a9922b331ddb9}{{5.3.2.20}{26}{get\-Data\-File\-Type}{subsubsection.5.3.2.20}{}}
\@writefile{toc}{\contentsline {subsubsection}{\numberline {5.3.2.21}get\-Data\-Periodicity}{26}{subsubsection.5.3.2.21}\protected@file@percent }
\newlabel{classconfig_pre_post_1_1config_data_pre_processor_a43915f52cc88ab325b80d516d686fb4a}{{5.3.2.21}{26}{get\-Data\-Periodicity}{subsubsection.5.3.2.21}{}}
\@writefile{toc}{\contentsline {subsubsection}{\numberline {5.3.2.22}get\-Number\-Of\-Data\-Files}{26}{subsubsection.5.3.2.22}\protected@file@percent }
\newlabel{classconfig_pre_post_1_1config_data_pre_processor_a1c1de3db1d72476ca1a6c7a5671f8933}{{5.3.2.22}{26}{get\-Number\-Of\-Data\-Files}{subsubsection.5.3.2.22}{}}
\@writefile{toc}{\contentsline {subsubsection}{\numberline {5.3.2.23}get\-Num\-Dimensions}{26}{subsubsection.5.3.2.23}\protected@file@percent }
\newlabel{classconfig_pre_post_1_1config_data_pre_processor_ab208da78cdd31e358a63c97648cc4fa9}{{5.3.2.23}{26}{get\-Num\-Dimensions}{subsubsection.5.3.2.23}{}}
\@writefile{toc}{\contentsline {subsubsection}{\numberline {5.3.2.24}get\-Seed\-Grid\-Bounds}{26}{subsubsection.5.3.2.24}\protected@file@percent }
\newlabel{classconfig_pre_post_1_1config_data_pre_processor_add0215423aff9f9c61dbf9223abfe44e}{{5.3.2.24}{26}{get\-Seed\-Grid\-Bounds}{subsubsection.5.3.2.24}{}}
\@writefile{toc}{\contentsline {subsubsection}{\numberline {5.3.2.25}get\-Seed\-Grid\-X\-Resolution}{26}{subsubsection.5.3.2.25}\protected@file@percent }
\newlabel{classconfig_pre_post_1_1config_data_pre_processor_a536b3a68f7beb4c256bf6d92a0c1eca7}{{5.3.2.25}{26}{get\-Seed\-Grid\-X\-Resolution}{subsubsection.5.3.2.25}{}}
\@writefile{toc}{\contentsline {subsubsection}{\numberline {5.3.2.26}get\-Seed\-Grid\-Y\-Resolution}{26}{subsubsection.5.3.2.26}\protected@file@percent }
\newlabel{classconfig_pre_post_1_1config_data_pre_processor_adee388655c37e1acad0e26c1dbcb8107}{{5.3.2.26}{26}{get\-Seed\-Grid\-Y\-Resolution}{subsubsection.5.3.2.26}{}}
\@writefile{toc}{\contentsline {subsubsection}{\numberline {5.3.2.27}get\-Seed\-Grid\-Z\-Resolution}{26}{subsubsection.5.3.2.27}\protected@file@percent }
\newlabel{classconfig_pre_post_1_1config_data_pre_processor_a4bf65c246b63997011fe9126cb3bb1f6}{{5.3.2.27}{26}{get\-Seed\-Grid\-Z\-Resolution}{subsubsection.5.3.2.27}{}}
\@writefile{toc}{\contentsline {subsubsection}{\numberline {5.3.2.28}get\-Seed\-Mesh\-File\-Name}{27}{subsubsection.5.3.2.28}\protected@file@percent }
\newlabel{classconfig_pre_post_1_1config_data_pre_processor_ad867d69db8defae4e5e498ef39498a93}{{5.3.2.28}{27}{get\-Seed\-Mesh\-File\-Name}{subsubsection.5.3.2.28}{}}
\@writefile{toc}{\contentsline {subsubsection}{\numberline {5.3.2.29}get\-Seed\-Particle\-File\-Name}{27}{subsubsection.5.3.2.29}\protected@file@percent }
\newlabel{classconfig_pre_post_1_1config_data_pre_processor_a49053000518aa6b1953c622a03919d14}{{5.3.2.29}{27}{get\-Seed\-Particle\-File\-Name}{subsubsection.5.3.2.29}{}}
\@writefile{toc}{\contentsline {subsubsection}{\numberline {5.3.2.30}get\-Seed\-Particle\-Radius}{27}{subsubsection.5.3.2.30}\protected@file@percent }
\newlabel{classconfig_pre_post_1_1config_data_pre_processor_a026899a74b4e90260e3e7c1817199e0d}{{5.3.2.30}{27}{get\-Seed\-Particle\-Radius}{subsubsection.5.3.2.30}{}}
\@writefile{toc}{\contentsline {subsubsection}{\numberline {5.3.2.31}get\-Seed\-Sample\-Frequency}{27}{subsubsection.5.3.2.31}\protected@file@percent }
\newlabel{classconfig_pre_post_1_1config_data_pre_processor_a955cbbe62808fddee3f48c12f624b15a}{{5.3.2.31}{27}{get\-Seed\-Sample\-Frequency}{subsubsection.5.3.2.31}{}}
\@writefile{toc}{\contentsline {subsubsection}{\numberline {5.3.2.32}obtain\-Bounding\-Box}{27}{subsubsection.5.3.2.32}\protected@file@percent }
\newlabel{classconfig_pre_post_1_1config_data_pre_processor_aa1d25c700e4598c75b44e83794e28680}{{5.3.2.32}{27}{obtain\-Bounding\-Box}{subsubsection.5.3.2.32}{}}
\@writefile{toc}{\contentsline {subsubsection}{\numberline {5.3.2.33}print\-Config\-Data}{27}{subsubsection.5.3.2.33}\protected@file@percent }
\newlabel{classconfig_pre_post_1_1config_data_pre_processor_a74f91cf59308596361fe0873d1edc1be}{{5.3.2.33}{27}{print\-Config\-Data}{subsubsection.5.3.2.33}{}}
\@writefile{toc}{\contentsline {subsubsection}{\numberline {5.3.2.34}set\-Config\-Data}{27}{subsubsection.5.3.2.34}\protected@file@percent }
\newlabel{classconfig_pre_post_1_1config_data_pre_processor_ae6117017c6682414b9f6c7490c8dfaba}{{5.3.2.34}{27}{set\-Config\-Data}{subsubsection.5.3.2.34}{}}
\@writefile{toc}{\contentsline {subsubsection}{\numberline {5.3.2.35}subsample\-Particles}{27}{subsubsection.5.3.2.35}\protected@file@percent }
\newlabel{classconfig_pre_post_1_1config_data_pre_processor_a0ea460a7b0b0b8a4c08571d09204bc58}{{5.3.2.35}{27}{subsample\-Particles}{subsubsection.5.3.2.35}{}}
\@writefile{toc}{\contentsline {chapter}{\numberline {6}File Documentation}{29}{chapter.6}\protected@file@percent }
\@writefile{lof}{\addvspace {10\p@ }}
\@writefile{lot}{\addvspace {10\p@ }}
\@writefile{toc}{\contentsline {section}{\numberline {6.1}post\-Processor\-Flow\-V\-C.\-py File Reference}{29}{section.6.1}\protected@file@percent }
\newlabel{post_processor_flow_v_c_8py}{{6.1}{29}{post\-Processor\-Flow\-V\-C.\-py File Reference}{section.6.1}{}}
\newlabel{namespacepost_processor_flow_v_c_a492c176819bcdd579b0a45a0ad1ad641}{{6.1}{29}{Variables}{section*.21}{}}
\@writefile{toc}{\contentsline {subsection}{\numberline {6.1.1}Detailed Description}{29}{subsection.6.1.1}\protected@file@percent }
\@writefile{toc}{\contentsline {section}{\numberline {6.2}pre\-Processor\-Flow\-V\-C.\-py File Reference}{29}{section.6.2}\protected@file@percent }
\newlabel{pre_processor_flow_v_c_8py}{{6.2}{29}{pre\-Processor\-Flow\-V\-C.\-py File Reference}{section.6.2}{}}
\newlabel{namespacepre_processor_flow_v_c_af39723d7e148a620857d4cec7db85b29}{{6.2}{30}{Functions}{section*.22}{}}
\newlabel{namespacepre_processor_flow_v_c_add2cb353ab056e17a1b5d6a5182f36d5}{{6.2}{30}{Functions}{section*.22}{}}
\newlabel{namespacepre_processor_flow_v_c_abf5c3503a0108de0e3dfb08e2361226d}{{6.2}{31}{Variables}{section*.23}{}}
\newlabel{namespacepre_processor_flow_v_c_a991cbe1b1e1b603a2d9ea0857c4b8e5e}{{6.2}{31}{Variables}{section*.23}{}}
\newlabel{namespacepre_processor_flow_v_c_af2ce4b68b212ff8c506a4b5d768bc5f4}{{6.2}{31}{Variables}{section*.23}{}}
\newlabel{namespacepre_processor_flow_v_c_a07c3a429c1400017553274a7732f2d4d}{{6.2}{31}{Variables}{section*.23}{}}
\newlabel{namespacepre_processor_flow_v_c_aa429791f1459820033399461069e1e03}{{6.2}{31}{Variables}{section*.23}{}}
\newlabel{namespacepre_processor_flow_v_c_a19fb39705f1c83629eae186c5d5cc9d0}{{6.2}{31}{Variables}{section*.23}{}}
\newlabel{namespacepre_processor_flow_v_c_a102b0858cef75b295a03abfa12064236}{{6.2}{31}{Variables}{section*.23}{}}
\newlabel{namespacepre_processor_flow_v_c_a356d2733ef4e42df0b84ab6a76ba0bc7}{{6.2}{31}{Variables}{section*.23}{}}
\newlabel{namespacepre_processor_flow_v_c_a3b4609e5072bf240ca8a21f330ed7e34}{{6.2}{31}{Variables}{section*.23}{}}
\newlabel{namespacepre_processor_flow_v_c_aa2c01cdf29c8cd2c488cb5c011e69a95}{{6.2}{31}{Variables}{section*.23}{}}
\newlabel{namespacepre_processor_flow_v_c_ad0b6631cd298ada2866b530479767675}{{6.2}{31}{Variables}{section*.23}{}}
\newlabel{namespacepre_processor_flow_v_c_a90a7ea88fdde0a20185043dda0f4389d}{{6.2}{31}{Variables}{section*.23}{}}
\newlabel{namespacepre_processor_flow_v_c_a9564eb2b28a8ccadc9e68fee1512ee39}{{6.2}{31}{Variables}{section*.23}{}}
\newlabel{namespacepre_processor_flow_v_c_abb6d0e5f37b50330f2554dad8add3b98}{{6.2}{31}{Variables}{section*.23}{}}
\newlabel{namespacepre_processor_flow_v_c_a3371a12d114b3361fdaeeef8080ac1f1}{{6.2}{31}{Variables}{section*.23}{}}
\newlabel{namespacepre_processor_flow_v_c_af433cca5721985630c622e032e8fec6e}{{6.2}{31}{Variables}{section*.23}{}}
\newlabel{namespacepre_processor_flow_v_c_aca84b1e117b24656d40895c267c3182d}{{6.2}{31}{Variables}{section*.23}{}}
\newlabel{namespacepre_processor_flow_v_c_a4b0e3a261a67d337e3552611f9def266}{{6.2}{31}{Variables}{section*.23}{}}
\newlabel{namespacepre_processor_flow_v_c_a64aa8d74a464b51281095c34d51e37ef}{{6.2}{31}{Variables}{section*.23}{}}
\newlabel{namespacepre_processor_flow_v_c_a98329b8f631aace74c6d08ac65693540}{{6.2}{31}{Variables}{section*.23}{}}
\newlabel{namespacepre_processor_flow_v_c_a3b3e9dce7fa81d6ff4afaf8fb7b0af36}{{6.2}{31}{Variables}{section*.23}{}}
\newlabel{namespacepre_processor_flow_v_c_a1c3fdfee651ceb0b75fae0420ba241fd}{{6.2}{31}{Variables}{section*.23}{}}
\newlabel{namespacepre_processor_flow_v_c_abe78480e7b867e1f1256a41a9ff20cfb}{{6.2}{31}{Variables}{section*.23}{}}
\newlabel{namespacepre_processor_flow_v_c_a09e03e85656cc136f1a62a12f3afcd9f}{{6.2}{31}{Variables}{section*.23}{}}
\newlabel{namespacepre_processor_flow_v_c_a4b356076a2d0281eabe451e5858c4bd3}{{6.2}{31}{Variables}{section*.23}{}}
\newlabel{namespacepre_processor_flow_v_c_a02641417f1955945aa94952f1543b504}{{6.2}{31}{Variables}{section*.23}{}}
\newlabel{namespacepre_processor_flow_v_c_ac0d1807961964df826272f94008cd22f}{{6.2}{31}{Variables}{section*.23}{}}
\newlabel{namespacepre_processor_flow_v_c_a5fae72661edebae397928eec9368a912}{{6.2}{31}{Variables}{section*.23}{}}
\newlabel{namespacepre_processor_flow_v_c_ac90e29eaad4a38dfe62a4613ff3be8bf}{{6.2}{31}{Variables}{section*.23}{}}
\newlabel{namespacepre_processor_flow_v_c_aa88a898bf2b959c160fe41b3a99b5db5}{{6.2}{31}{Variables}{section*.23}{}}
\newlabel{namespacepre_processor_flow_v_c_aa0e6ed870fa59d690c5d0f4a53305405}{{6.2}{31}{Variables}{section*.23}{}}
\newlabel{namespacepre_processor_flow_v_c_ad4f2be55580220e97300996e884695fd}{{6.2}{31}{Variables}{section*.23}{}}
\newlabel{namespacepre_processor_flow_v_c_ae32bf9818a2645cbed3f72d92e9b0bb6}{{6.2}{31}{Variables}{section*.23}{}}
\newlabel{namespacepre_processor_flow_v_c_a91ebe890b08675820a8890c3f4259e84}{{6.2}{31}{Variables}{section*.23}{}}
\@writefile{toc}{\contentsline {subsection}{\numberline {6.2.1}Detailed Description}{32}{subsection.6.2.1}\protected@file@percent }
\@writefile{toc}{\contentsline {section}{\numberline {6.3}run\-Post\-Processor\-Mode.\-py File Reference}{32}{section.6.3}\protected@file@percent }
\newlabel{run_post_processor_mode_8py}{{6.3}{32}{run\-Post\-Processor\-Mode.\-py File Reference}{section.6.3}{}}
\newlabel{namespacerun_post_processor_mode_ac3047a824422dc0b47aafa66a21d69b0}{{6.3}{33}{Variables}{section*.25}{}}
\newlabel{namespacerun_post_processor_mode_adf313e0f97947f1d0f5a52f6129d546e}{{6.3}{33}{Variables}{section*.25}{}}
\newlabel{namespacerun_post_processor_mode_a578e317365cbc0d0d27ad5613f87ca38}{{6.3}{33}{Variables}{section*.25}{}}
\newlabel{namespacerun_post_processor_mode_a13004a6304955293ea942d826be6b9e0}{{6.3}{33}{Variables}{section*.25}{}}
\newlabel{namespacerun_post_processor_mode_ac97770408003d1e0f80380078235ee95}{{6.3}{33}{Variables}{section*.25}{}}
\newlabel{namespacerun_post_processor_mode_ae07b6d85bee0c39da00e5d7507d88fce}{{6.3}{33}{Variables}{section*.25}{}}
\newlabel{namespacerun_post_processor_mode_a1f132f046125a43bd86c8d52ae45a1f9}{{6.3}{33}{Variables}{section*.25}{}}
\@writefile{toc}{\contentsline {subsection}{\numberline {6.3.1}Detailed Description}{33}{subsection.6.3.1}\protected@file@percent }
\@writefile{toc}{\contentsline {section}{\numberline {6.4}run\-Pre\-Processor\-Mode.\-py File Reference}{33}{section.6.4}\protected@file@percent }
\newlabel{run_pre_processor_mode_8py}{{6.4}{33}{run\-Pre\-Processor\-Mode.\-py File Reference}{section.6.4}{}}
\newlabel{namespacerun_pre_processor_mode_a7422f92966744973e92b338bb8391df0}{{6.4}{33}{Variables}{section*.26}{}}
\newlabel{namespacerun_pre_processor_mode_ab5334f03062662fb9ae83fd5bad78285}{{6.4}{33}{Variables}{section*.26}{}}
\newlabel{namespacerun_pre_processor_mode_ab6da27bb689e4a04291911877b0877da}{{6.4}{33}{Variables}{section*.26}{}}
\newlabel{namespacerun_pre_processor_mode_a61ba2a6ad87c29ac93c8c0109a20526f}{{6.4}{33}{Variables}{section*.26}{}}
\newlabel{namespacerun_pre_processor_mode_acde2ff3af53d05b3c3f5afc8df245c83}{{6.4}{33}{Variables}{section*.26}{}}
\newlabel{namespacerun_pre_processor_mode_a9a64aa9c540ff34448db370cbddeeeb3}{{6.4}{33}{Variables}{section*.26}{}}
\newlabel{namespacerun_pre_processor_mode_a2cdfff67c13bf9e32e356bf5ef2c6edd}{{6.4}{33}{Variables}{section*.26}{}}
\newlabel{namespacerun_pre_processor_mode_a2a111340a6381a482daeb233cb00ce3c}{{6.4}{33}{Variables}{section*.26}{}}
\newlabel{namespacerun_pre_processor_mode_ad4ae398e590ee8e56f435e9d46a2efef}{{6.4}{33}{Variables}{section*.26}{}}
\newlabel{namespacerun_pre_processor_mode_aeef04c12da5f1d875f5883347732996d}{{6.4}{33}{Variables}{section*.26}{}}
\newlabel{namespacerun_pre_processor_mode_acd4999a045891b01a7876eab956580f7}{{6.4}{33}{Variables}{section*.26}{}}
\newlabel{namespacerun_pre_processor_mode_af463774a17177a53e933618481e48181}{{6.4}{33}{Variables}{section*.26}{}}
\newlabel{namespacerun_pre_processor_mode_a05590b8335826cbbf00bcd1861aaf511}{{6.4}{33}{Variables}{section*.26}{}}
\newlabel{namespacerun_pre_processor_mode_a5e12daf77935f9fabd36397296d8fe02}{{6.4}{33}{Variables}{section*.26}{}}
\newlabel{namespacerun_pre_processor_mode_ad3a4adab6a95ffdd2a13e4a9c473c11a}{{6.4}{33}{Variables}{section*.26}{}}
\newlabel{namespacerun_pre_processor_mode_a7d31e722f1d4ce1800c2fb1ff54e7c36}{{6.4}{33}{Variables}{section*.26}{}}
\newlabel{namespacerun_pre_processor_mode_a064732b63292d124312e6e9ba7530b9a}{{6.4}{33}{Variables}{section*.26}{}}
\newlabel{namespacerun_pre_processor_mode_a883ce2ab4c180b7dac64b68c54a774a8}{{6.4}{33}{Variables}{section*.26}{}}
\newlabel{namespacerun_pre_processor_mode_a1494f3abb07f9d0ca60ce2a5dafea445}{{6.4}{33}{Variables}{section*.26}{}}
\newlabel{namespacerun_pre_processor_mode_a607569fffd855f04f88708e9c6bb0b10}{{6.4}{33}{Variables}{section*.26}{}}
\newlabel{namespacerun_pre_processor_mode_afece91dd0e6d5f8fd9231de92906ff90}{{6.4}{34}{Variables}{section*.26}{}}
\newlabel{namespacerun_pre_processor_mode_a6d5d3fe31b30c0668b104fcb9519892e}{{6.4}{34}{Variables}{section*.26}{}}
\newlabel{namespacerun_pre_processor_mode_a19e1d24bbb6914496558ffefa983cb5c}{{6.4}{34}{Variables}{section*.26}{}}
\newlabel{namespacerun_pre_processor_mode_a293193f6f7fbb468c841eb988acae421}{{6.4}{34}{Variables}{section*.26}{}}
\newlabel{namespacerun_pre_processor_mode_a156398dccad4333acf8e3116c704251c}{{6.4}{34}{Variables}{section*.26}{}}
\newlabel{namespacerun_pre_processor_mode_aa59daf201e1186cdde8719be4ec4a77b}{{6.4}{34}{Variables}{section*.26}{}}
\newlabel{namespacerun_pre_processor_mode_adc87d24eb4defbc9213ed095eb9a62a1}{{6.4}{34}{Variables}{section*.26}{}}
\newlabel{namespacerun_pre_processor_mode_ab22839c63fce66613e6a8b7dfffc716b}{{6.4}{34}{Variables}{section*.26}{}}
\newlabel{namespacerun_pre_processor_mode_a2c4dff186a91a557b2c8fa15451a53d9}{{6.4}{34}{Variables}{section*.26}{}}
\newlabel{namespacerun_pre_processor_mode_a4f9c3238bb079ede00cebd09ce033398}{{6.4}{34}{Variables}{section*.26}{}}
\newlabel{namespacerun_pre_processor_mode_aa2bebe0547fe923c6818ca0273025b8c}{{6.4}{34}{Variables}{section*.26}{}}
\newlabel{namespacerun_pre_processor_mode_a4ccfebd1fdcd854359eecab9a8f0fa02}{{6.4}{34}{Variables}{section*.26}{}}
\newlabel{namespacerun_pre_processor_mode_a0e617f28c31f53b11b523f744e75884e}{{6.4}{34}{Variables}{section*.26}{}}
\@writefile{toc}{\contentsline {subsection}{\numberline {6.4.1}Detailed Description}{34}{subsection.6.4.1}\protected@file@percent }
\@writefile{toc}{\contentsline {section}{\numberline {6.5}run\-Sim\-Pipeline\-Mode.\-py File Reference}{34}{section.6.5}\protected@file@percent }
\newlabel{run_sim_pipeline_mode_8py}{{6.5}{34}{run\-Sim\-Pipeline\-Mode.\-py File Reference}{section.6.5}{}}
\newlabel{namespacerun_sim_pipeline_mode_a44c7f9f54039ea71cbfe61c6571e7e47}{{6.5}{34}{Variables}{section*.27}{}}
\newlabel{namespacerun_sim_pipeline_mode_a3cea6c35117ea9adda71b23f26e7399a}{{6.5}{34}{Variables}{section*.27}{}}
\newlabel{namespacerun_sim_pipeline_mode_a236a2c0a612ad4a18d1c143d689c46a9}{{6.5}{34}{Variables}{section*.27}{}}
\newlabel{namespacerun_sim_pipeline_mode_adf623720d763688fd085a449c18e1636}{{6.5}{34}{Variables}{section*.27}{}}
\newlabel{namespacerun_sim_pipeline_mode_a12c8c323120082b59d8499052ffd15c6}{{6.5}{34}{Variables}{section*.27}{}}
\newlabel{namespacerun_sim_pipeline_mode_a6eba720981fcb064ec72e4d789aed05c}{{6.5}{34}{Variables}{section*.27}{}}
\newlabel{namespacerun_sim_pipeline_mode_a3b705e4affc09e1e24eda8a8a40d3d9b}{{6.5}{34}{Variables}{section*.27}{}}
\newlabel{namespacerun_sim_pipeline_mode_aa49ac6f03925cac3c4836c6a47ae9d48}{{6.5}{34}{Variables}{section*.27}{}}
\newlabel{namespacerun_sim_pipeline_mode_a8a59c24e37bfd486284c3076da4cf598}{{6.5}{34}{Variables}{section*.27}{}}
\newlabel{namespacerun_sim_pipeline_mode_ac5ba7c698042ae6d3918aed166d05540}{{6.5}{34}{Variables}{section*.27}{}}
\newlabel{namespacerun_sim_pipeline_mode_a1f4963b1ffd4038c871a28dd92679664}{{6.5}{34}{Variables}{section*.27}{}}
\newlabel{namespacerun_sim_pipeline_mode_a5ad0138a8734b6106eac6f26ff6f4e2a}{{6.5}{34}{Variables}{section*.27}{}}
\newlabel{namespacerun_sim_pipeline_mode_af88b2d8500874604e88494a51b47acfa}{{6.5}{34}{Variables}{section*.27}{}}
\newlabel{namespacerun_sim_pipeline_mode_a4e10df8af1188f47f4d71f1474b8dd22}{{6.5}{34}{Variables}{section*.27}{}}
\newlabel{namespacerun_sim_pipeline_mode_a8a63085688a080a0a31996416bb62e1d}{{6.5}{34}{Variables}{section*.27}{}}
\newlabel{namespacerun_sim_pipeline_mode_ab8f05529cbbf316056c3886ffb847d3b}{{6.5}{35}{Variables}{section*.27}{}}
\newlabel{namespacerun_sim_pipeline_mode_afe7de0a551bb39cbc9df0657dd28ba21}{{6.5}{35}{Variables}{section*.27}{}}
\newlabel{namespacerun_sim_pipeline_mode_a6e215e0e14c43993d469a34ae2be61ec}{{6.5}{35}{Variables}{section*.27}{}}
\newlabel{namespacerun_sim_pipeline_mode_accfce2d61dff693da73f033b68213626}{{6.5}{35}{Variables}{section*.27}{}}
\newlabel{namespacerun_sim_pipeline_mode_ab67bd4a39c9bf847fd8a23c6c9c01b5f}{{6.5}{35}{Variables}{section*.27}{}}
\newlabel{namespacerun_sim_pipeline_mode_a9af0072973898603cbe8c5ab4ac9ca61}{{6.5}{35}{Variables}{section*.27}{}}
\newlabel{namespacerun_sim_pipeline_mode_afd9bdbf5f73fb7e0ded8cafe09b2eb89}{{6.5}{35}{Variables}{section*.27}{}}
\newlabel{namespacerun_sim_pipeline_mode_a9e293a92b4e37f1f727e2dbd313a0d5f}{{6.5}{35}{Variables}{section*.27}{}}
\newlabel{namespacerun_sim_pipeline_mode_aaecc6d9a7f11136d21bea6dc792acfcb}{{6.5}{35}{Variables}{section*.27}{}}
\newlabel{namespacerun_sim_pipeline_mode_a581911956663339c302040b598a8af70}{{6.5}{35}{Variables}{section*.27}{}}
\newlabel{namespacerun_sim_pipeline_mode_ad74c71a2e84bd4e9b1fbf6290d950f63}{{6.5}{35}{Variables}{section*.27}{}}
\newlabel{namespacerun_sim_pipeline_mode_a68f2ed23f62dc7506f1be92f90de627c}{{6.5}{35}{Variables}{section*.27}{}}
\newlabel{namespacerun_sim_pipeline_mode_a6d9a2feb6f10f8f058e514d2c99f3e2e}{{6.5}{35}{Variables}{section*.27}{}}
\newlabel{namespacerun_sim_pipeline_mode_ae6e8a11ddff8bff2c6fca3e360dded5f}{{6.5}{35}{Variables}{section*.27}{}}
\newlabel{namespacerun_sim_pipeline_mode_a26736a89cd305515bdc69158899a67f6}{{6.5}{35}{Variables}{section*.27}{}}
\newlabel{namespacerun_sim_pipeline_mode_a7b06a2c0ecb4e24b8d74371da0e821d9}{{6.5}{35}{Variables}{section*.27}{}}
\newlabel{namespacerun_sim_pipeline_mode_a81e5f919438db523dffc7faac98f5ef5}{{6.5}{35}{Variables}{section*.27}{}}
\newlabel{namespacerun_sim_pipeline_mode_ac8a249a783087eebf01e7f5249a2782f}{{6.5}{35}{Variables}{section*.27}{}}
\newlabel{namespacerun_sim_pipeline_mode_a6dcb13cae003b89af55058335d552609}{{6.5}{35}{Variables}{section*.27}{}}
\newlabel{namespacerun_sim_pipeline_mode_ab245907c1688e83365f5fbab321f9f26}{{6.5}{35}{Variables}{section*.27}{}}
\newlabel{namespacerun_sim_pipeline_mode_a86983a71255fe88d8bb14b80be3adbe2}{{6.5}{35}{Variables}{section*.27}{}}
\newlabel{namespacerun_sim_pipeline_mode_a35510cc1b1f19b77f4d80675d248b1b7}{{6.5}{35}{Variables}{section*.27}{}}
\newlabel{namespacerun_sim_pipeline_mode_a4f64193fa2ff84d10363dd3e786f5024}{{6.5}{35}{Variables}{section*.27}{}}
\newlabel{namespacerun_sim_pipeline_mode_a3a5a9f30a335204f03210eb88425ae30}{{6.5}{35}{Variables}{section*.27}{}}
\newlabel{namespacerun_sim_pipeline_mode_a797864bf2924ca7cf342fb3b64df0fae}{{6.5}{35}{Variables}{section*.27}{}}
\newlabel{namespacerun_sim_pipeline_mode_a8f86c415dd3fc40e948da4e5f1630c07}{{6.5}{35}{Variables}{section*.27}{}}
\newlabel{namespacerun_sim_pipeline_mode_a3675b2c3e81d15ec45e7a4fb18afecc4}{{6.5}{35}{Variables}{section*.27}{}}
\newlabel{namespacerun_sim_pipeline_mode_a863045b693653fd4873423651a563797}{{6.5}{35}{Variables}{section*.27}{}}
\newlabel{namespacerun_sim_pipeline_mode_a3af27c4b67c313aa124827c92bf0e0f6}{{6.5}{35}{Variables}{section*.27}{}}
\@writefile{toc}{\contentsline {subsection}{\numberline {6.5.1}Detailed Description}{35}{subsection.6.5.1}\protected@file@percent }
